module gitlab.com/cyverse/cacao

go 1.21

require (
	github.com/PaesslerAG/jsonpath v0.1.1
	github.com/amonsat/fullname_parser v0.0.0-20180221140204-0879740fa92c
	github.com/apenella/go-ansible v1.1.7
	github.com/aws/aws-sdk-go-v2 v1.26.0
	github.com/aws/aws-sdk-go-v2/service/ec2 v1.153.0
	github.com/aws/aws-sdk-go-v2/service/sts v1.25.2
	github.com/aws/smithy-go v1.20.1
	github.com/cloudevents/sdk-go/v2 v2.15.2
	github.com/coreos/go-oidc/v3 v3.10.0
	github.com/dgraph-io/ristretto v0.1.1
	github.com/docker/distribution v2.8.3+incompatible
	github.com/eko/gocache v1.2.0
	github.com/fatih/color v1.16.0
	github.com/go-git/go-billy/v5 v5.5.0
	github.com/go-git/go-git/v5 v5.11.0
	github.com/go-redis/redis/v8 v8.11.5
	github.com/golang-jwt/jwt/v5 v5.1.0
	github.com/gorilla/handlers v1.5.2
	github.com/gorilla/mux v1.8.1
	github.com/hokaccha/go-prettyjson v0.0.0-20190818114111-108c894c2c0e
	github.com/kelseyhightower/envconfig v1.4.0
	github.com/mitchellh/cli v1.1.4
	github.com/mitchellh/mapstructure v1.5.0
	github.com/nats-io/nats-streaming-server v0.25.6
	github.com/nats-io/nats.go v1.33.1
	github.com/nats-io/stan.go v0.10.4
	github.com/openfaas/faas-cli v0.0.0-20201030090417-6914d950c9ba
	github.com/openfaas/faas-netes v0.0.0-20201205133446-c402b912ce21
	github.com/pkg/errors v0.9.1
	github.com/rs/xid v1.5.0
	github.com/sirupsen/logrus v1.9.3
	github.com/spf13/cobra v1.8.0
	github.com/stretchr/testify v1.8.4
	github.com/xeipuuv/gojsonschema v1.2.0
	gitlab.com/cyverse/cacao-common v0.0.0-20240408183438-22a6a96fb6fe
	go.mongodb.org/mongo-driver v1.13.2
	golang.org/x/crypto v0.21.0
	golang.org/x/oauth2 v0.16.0
	gopkg.in/yaml.v2 v2.4.0
	istio.io/api v0.0.0-20201112235759-fa4ee46c5dc2
	istio.io/client-go v1.8.0
	k8s.io/api v0.28.8
	k8s.io/apimachinery v0.28.8
	k8s.io/client-go v0.28.8
	sigs.k8s.io/yaml v1.3.0
)

require (
	dario.cat/mergo v1.0.0 // indirect
	github.com/BurntSushi/toml v0.3.1 // indirect
	github.com/Masterminds/goutils v1.1.0 // indirect
	github.com/Masterminds/semver/v3 v3.1.1 // indirect
	github.com/Masterminds/sprig/v3 v3.2.0 // indirect
	github.com/Microsoft/go-winio v0.6.1 // indirect
	github.com/PaesslerAG/gval v1.0.0 // indirect
	github.com/ProtonMail/go-crypto v0.0.0-20230828082145-3c4c8a2d2371 // indirect
	github.com/XiaoMi/pegasus-go-client v0.0.0-20210427083443-f3b6b08bc4c2 // indirect
	github.com/apenella/go-common-utils/data v0.0.0-20210528133155-34ba915e28c8 // indirect
	github.com/apenella/go-common-utils/error v0.0.0-20210528133155-34ba915e28c8 // indirect
	github.com/armon/go-metrics v0.4.1 // indirect
	github.com/armon/go-radix v0.0.0-20180808171621-7fddfc383310 // indirect
	github.com/aws/aws-sdk-go-v2/internal/configsources v1.3.4 // indirect
	github.com/aws/aws-sdk-go-v2/internal/endpoints/v2 v2.6.4 // indirect
	github.com/aws/aws-sdk-go-v2/service/internal/accept-encoding v1.11.1 // indirect
	github.com/aws/aws-sdk-go-v2/service/internal/presigned-url v1.11.6 // indirect
	github.com/beorn7/perks v1.0.1 // indirect
	github.com/bgentry/speakeasy v0.1.0 // indirect
	github.com/bradfitz/gomemcache v0.0.0-20190913173617-a41fca850d0b // indirect
	github.com/cenkalti/backoff/v4 v4.1.0 // indirect
	github.com/cespare/xxhash/v2 v2.2.0 // indirect
	github.com/cloudflare/circl v1.3.7 // indirect
	github.com/cyphar/filepath-securejoin v0.2.4 // indirect
	github.com/davecgh/go-spew v1.1.1 // indirect
	github.com/dgryski/go-rendezvous v0.0.0-20200823014737-9f7001d12a5f // indirect
	github.com/distribution/reference v0.5.0 // indirect
	github.com/drone/envsubst v1.0.2 // indirect
	github.com/dustin/go-humanize v1.0.0 // indirect
	github.com/emicklei/go-restful/v3 v3.9.0 // indirect
	github.com/emirpasic/gods v1.18.1 // indirect
	github.com/evanphx/json-patch v4.12.0+incompatible // indirect
	github.com/felixge/httpsnoop v1.0.3 // indirect
	github.com/go-git/gcfg v1.5.1-0.20230307220236-3a3c6141e376 // indirect
	github.com/go-jose/go-jose/v4 v4.0.1 // indirect
	github.com/go-logr/logr v1.2.4 // indirect
	github.com/go-openapi/jsonpointer v0.19.6 // indirect
	github.com/go-openapi/jsonreference v0.20.2 // indirect
	github.com/go-openapi/swag v0.22.3 // indirect
	github.com/gogo/protobuf v1.3.2 // indirect
	github.com/golang/glog v1.1.0 // indirect
	github.com/golang/groupcache v0.0.0-20210331224755-41bb18bfe9da // indirect
	github.com/golang/protobuf v1.5.4 // indirect
	github.com/golang/snappy v0.0.4 // indirect
	github.com/google/gnostic-models v0.6.8 // indirect
	github.com/google/go-cmp v0.6.0 // indirect
	github.com/google/gofuzz v1.2.0 // indirect
	github.com/google/uuid v1.6.0 // indirect
	github.com/hashicorp/errwrap v1.0.0 // indirect
	github.com/hashicorp/go-hclog v1.5.0 // indirect
	github.com/hashicorp/go-immutable-radix v1.3.1 // indirect
	github.com/hashicorp/go-msgpack/v2 v2.1.1 // indirect
	github.com/hashicorp/go-multierror v1.0.0 // indirect
	github.com/hashicorp/golang-lru v1.0.2 // indirect
	github.com/hashicorp/raft v1.6.0 // indirect
	github.com/huandu/xstrings v1.3.2 // indirect
	github.com/imdario/mergo v0.3.11 // indirect
	github.com/inconshreveable/mousetrap v1.1.0 // indirect
	github.com/jbenet/go-context v0.0.0-20150711004518-d14ea06fba99 // indirect
	github.com/jmespath/go-jmespath v0.4.0 // indirect
	github.com/josharian/intern v1.0.0 // indirect
	github.com/json-iterator/go v1.1.12 // indirect
	github.com/kevinburke/ssh_config v1.2.0 // indirect
	github.com/klauspost/compress v1.17.7 // indirect
	github.com/mailru/easyjson v0.7.7 // indirect
	github.com/mattn/go-colorable v0.1.13 // indirect
	github.com/mattn/go-isatty v0.0.20 // indirect
	github.com/minio/highwayhash v1.0.2 // indirect
	github.com/mitchellh/copystructure v1.0.0 // indirect
	github.com/mitchellh/reflectwalk v1.0.0 // indirect
	github.com/modern-go/concurrent v0.0.0-20180306012644-bacd9c7ef1dd // indirect
	github.com/modern-go/reflect2 v1.0.2 // indirect
	github.com/montanaflynn/stats v0.0.0-20171201202039-1bf9dbcd8cbe // indirect
	github.com/munnerz/goautoneg v0.0.0-20191010083416-a7dc8b61c822 // indirect
	github.com/nats-io/jwt/v2 v2.5.5 // indirect
	github.com/nats-io/nats-server/v2 v2.10.12 // indirect
	github.com/nats-io/nkeys v0.4.7 // indirect
	github.com/nats-io/nuid v1.0.1 // indirect
	github.com/opencontainers/go-digest v1.0.0 // indirect
	github.com/pegasus-kv/thrift v0.13.0 // indirect
	github.com/pjbgf/sha1cd v0.3.0 // indirect
	github.com/pmezard/go-difflib v1.0.0 // indirect
	github.com/posener/complete v1.1.1 // indirect
	github.com/prometheus/client_golang v1.18.0 // indirect
	github.com/prometheus/client_model v0.5.0 // indirect
	github.com/prometheus/common v0.48.0 // indirect
	github.com/prometheus/procfs v0.12.0 // indirect
	github.com/ryanuber/go-glob v1.0.0 // indirect
	github.com/santhosh-tekuri/jsonschema v1.2.4 // indirect
	github.com/sergi/go-diff v1.1.0 // indirect
	github.com/shopspring/decimal v1.2.0 // indirect
	github.com/skeema/knownhosts v1.2.1 // indirect
	github.com/spf13/cast v1.3.1 // indirect
	github.com/spf13/pflag v1.0.5 // indirect
	github.com/stretchr/objx v0.5.0 // indirect
	github.com/xanzy/ssh-agent v0.3.3 // indirect
	github.com/xdg-go/pbkdf2 v1.0.0 // indirect
	github.com/xdg-go/scram v1.1.2 // indirect
	github.com/xdg-go/stringprep v1.0.4 // indirect
	github.com/xeipuuv/gojsonpointer v0.0.0-20180127040702-4e3ac2762d5f // indirect
	github.com/xeipuuv/gojsonreference v0.0.0-20180127040603-bd5ef7bd5415 // indirect
	github.com/youmark/pkcs8 v0.0.0-20181117223130-1be2e3e5546d // indirect
	go.etcd.io/bbolt v1.3.8 // indirect
	go.uber.org/atomic v1.5.0 // indirect
	go.uber.org/multierr v1.3.0 // indirect
	go.uber.org/tools v0.0.0-20190618225709-2cfd321de3ee // indirect
	go.uber.org/zap v1.13.0 // indirect
	golang.org/x/lint v0.0.0-20210508222113-6edffad5e616 // indirect
	golang.org/x/mod v0.14.0 // indirect
	golang.org/x/net v0.23.0 // indirect
	golang.org/x/sync v0.5.0 // indirect
	golang.org/x/sys v0.18.0 // indirect
	golang.org/x/term v0.18.0 // indirect
	golang.org/x/text v0.14.0 // indirect
	golang.org/x/time v0.5.0 // indirect
	golang.org/x/tools v0.16.1 // indirect
	google.golang.org/appengine v1.6.8 // indirect
	google.golang.org/protobuf v1.33.0 // indirect
	gopkg.in/inf.v0 v0.9.1 // indirect
	gopkg.in/natefinch/lumberjack.v2 v2.0.0 // indirect
	gopkg.in/tomb.v2 v2.0.0-20161208151619-d5d1b5820637 // indirect
	gopkg.in/warnings.v0 v0.1.2 // indirect
	gopkg.in/yaml.v3 v3.0.1 // indirect
	honnef.co/go/tools v0.1.3 // indirect
	istio.io/gogo-genproto v0.0.0-20190930162913-45029607206a // indirect
	k8s.io/klog/v2 v2.100.1 // indirect
	k8s.io/kube-openapi v0.0.0-20230717233707-2695361300d9 // indirect
	k8s.io/utils v0.0.0-20230406110748-d93618cff8a2 // indirect
	sigs.k8s.io/json v0.0.0-20221116044647-bc3834ca7abd // indirect
	sigs.k8s.io/structured-merge-diff/v4 v4.2.3 // indirect
)

//replace 	gitlab.com/cyverse/cacao-common => ../cacao-common
