{
  "type": "object",
  "properties": {
    "k8s_api_ssh_tunnel": {
      "type": "boolean"
    },
    "k8s_api_ssh_tunnel_config": {
      "type": "object",
      "properties": {
        "host": {
          "type": "string",
          "minLength": 1
        },
        "port": {
          "type": "integer",
          "minimum": 1,
          "maximum": 65535
        },
        "username": {
          "type": "string",
          "description": "ssh username",
          "minLength": 1
        },
        "use_cacao_ssh_key": {
          "type": "boolean",
          "description": "whether to use cacao's private ssh key or not"
        },
        "ssh_key_cred_id": {
          "type": "string",
          "description": "user's private ssh key",
          "minLength": 1
        },
        "ssh_host_key": {
          "type": "string",
          "description": "host key to verify against, if empty skip host verification",
          "minLength": 1
        }
      },
      "required": [
        "host",
        "port",
        "username",
        "use_cacao_ssh_key"
      ]
    },
    "k8s_distro": {
      "type": "string",
      "description": "distribution of K8S, e.g. k3s",
      "minLength": 1
    },
    "k8s_version": {
      "type": "string",
      "description": "version of k8s, e.g. v1.24.13",
      "minLength": 6
    },
    "kubeconfig_cred_id": {
      "type": "string",
      "description": "ID of the kubeconfig credential",
      "minLength": 1
    }
  },
  "required": [
    "kubeconfig_cred_id",
    "k8s_api_ssh_tunnel"
  ]
}
