{
  "type": "object",
  "properties": {
    "prerequisite_template": {
      "type": "object",
      "properties": {
        "template_id": {
          "type": "string",
          "minLength": 1
        }
      },
      "required": [
        "template_id"
      ]
    },
    "public_ssh_key": {
      "type": "string",
      "minLength": 1
    },
    "external_network_name": {
      "type": "string",
      "minLength": 1
    },
    "external_network_uuid": {
      "type": "string",
      "format": "uuid",
      "minLength": 1
    },
    "external_subnet_uuids": {
      "type": "array",
      "items": {
        "type": "string",
        "format": "uuid",
        "minLength": 1
      },
      "minItems": 1,
      "uniqueItems": true
    },
    "OS_AUTH_URL": {
      "type": "string",
      "minLength": 1
    },
    "OS_IDENTITY_API_VERSION": {
      "type": "string",
      "minLength": 1
    },
    "OS_REGION_NAME": {
      "type": "string",
      "minLength": 1
    },
    "OS_INTERFACE": {
      "type": "string",
      "minLength": 1
    },
    "OS_USER_DOMAIN_NAME": {
      "type": "string",
      "minLength": 1
    },
    "OS_USER_DOMAIN_ID": {
      "type": "string",
      "format": "uuid",
      "minLength": 1
    },
    "OS_PROJECT_DOMAIN_NAME": {
      "type": "string",
      "minLength": 1
    },
    "OS_PROJECT_DOMAIN_ID": {
      "type": "string",
      "format": "uuid",
      "minLength": 1
    }
  },
  "required": [
    "prerequisite_template",
    "public_ssh_key",
    "external_network_name",
    "external_network_uuid",
    "external_subnet_uuids",
    "OS_AUTH_URL",
    "OS_IDENTITY_API_VERSION",
    "OS_REGION_NAME",
    "OS_INTERFACE"
  ]
}
