[
    {
        "name":"cacao_openstack_flavors",
        "description":"Openstack flavors for Cacao",
        "query_method":"nats",
        "query_target":"cyverse.provider.openstack.flavors.list",
        "query_result_jsonpath_filter": "$..id"
    },
    {
        "name":"cacao_openstack_images",
        "description":"Openstack images for Cacao",
        "query_method":"nats",
        "query_target":"cyverse.provider.openstack.images.list",
        "query_result_jsonpath_filter": "$..id"
    }
]